{
    "idFormulariosEtapas": "38",
    "titulo": "Dados Cadastrais Pessoais",
    "ordem": "1",
    "ativo": "1",
    "idFormularios": "35",
    "idTipoCampo": "1",
    "campos": [
        {
            "idCampo": "54",
            "nome": "Nome",
            "nomepadrao": "Fernando Vicente",
            "ordem": "1",
            "qtdminima": null,
            "qtdmaxima": null,
            "obrigatorio": "0",
            "multiplo": null,
            "idTipoCampo": "1",
            "idCampoVinc": null,
            "idApi": null,
            "icone": "user",
            "idMascara": "6",
            "nMascara": "Somente Letras",
            "mask": null,
            "pattern": "/\\d/g",
            "idTag": null,
            "tagValue": null,
            "tagTitle": null,
            "tagDescricao": null,
            "tagType": null,
            "opcoes": []
        }, {
            "idCampo": "57",
            "nome": "Celular",
            "nomepadrao": "(18) 99633-3187",
            "ordem": "4",
            "qtdminima": null,
            "qtdmaxima": null,
            "obrigatorio": "0",
            "multiplo": null,
            "idTipoCampo": "1",
            "idCampoVinc": null,
            "idApi": null,
            "icone": "phone",
            "idMascara": "5",
            "nMascara": "Telefones com DDD",
            "mask": "(99) 99999-9999",
            "pattern": null,
            "idTag": null,
            "tagValue": null,
            "tagTitle": null,
            "tagDescricao": null,
            "tagType": null,
            "opcoes": []
        }, {
            "idCampo": "58",
            "nome": "Teste",
            "nomepadrao": "1",
            "ordem": "5",
            "qtdminima": null,
            "qtdmaxima": null,
            "obrigatorio": "0",
            "multiplo": null,
            "idTipoCampo": "3",
            "idCampoVinc": null,
            "idApi": null,
            "icone": "user",
            "idMascara": null,
            "nMascara": null,
            "mask": null,
            "pattern": null,
            "idTag": null,
            "tagValue": null,
            "tagTitle": null,
            "tagDescricao": null,
            "tagType": null,
            "opcoes": [
                { "codigo": 1, "descricao": "Teste 1" },
                { "codigo": 2, "descricao": "Teste 2" }
            ]
        }, {
            "idCampo": "59",
            "nome": "Estado",
            "nomepadrao": null,
            "ordem": "6",
            "qtdminima": null,
            "qtdmaxima": null,
            "obrigatorio": "1",
            "multiplo": null,
            "idTipoCampo": "5",
            "idCampoVinc": null,
            "idApi": null,
            "icone": "map-o",
            "idMascara": null,
            "nMascara": null,
            "mask": null,
            "pattern": null,
            "idTag": null,
            "tagValue": null,
            "tagTitle": null,
            "tagDescricao": null,
            "tagType": null,
            "opcoes": [
                { "codigo": 27, "descricao": "AC" },
                { "codigo": 1, "descricao": "AL" },
                { "codigo": 2, "descricao": "AM" },
                { "codigo": 3, "descricao": "AP" },
                { "codigo": 4, "descricao": "BA" },
                { "codigo": 5, "descricao": "CE" },
                { "codigo": 6, "descricao": "DF" },
                { "codigo": 7, "descricao": "ES" },
                { "codigo": 8, "descricao": "GO" },
                { "codigo": 9, "descricao": "MA" },
                { "codigo": 10, "descricao": "MG" },
                { "codigo": 11, "descricao": "MS" },
                { "codigo": 12, "descricao": "MT" },
                { "codigo": 13, "descricao": "PA" },
                { "codigo": 14, "descricao": "PB" },
                { "codigo": 15, "descricao": "PE" },
                { "codigo": 16, "descricao": "PI" },
                { "codigo": 17, "descricao": "PR" },
                { "codigo": 18, "descricao": "RJ" },
                { "codigo": 19, "descricao": "RN" },
                { "codigo": 20, "descricao": "RO" },
                { "codigo": 21, "descricao": "RR" },
                { "codigo": 22, "descricao": "RS" },
                { "codigo": 23, "descricao": "SC" },
                { "codigo": 24, "descricao": "SE" },
                { "codigo": 25, "descricao": "SP" },
                { "codigo": 26, "descricao": "TO" }
            ]
        },{
            "idCampo": "60",
            "nome": "Cidade",
            "nomepadrao": null,
            "ordem": "7",
            "qtdminima": null,
            "qtdmaxima": null,
            "obrigatorio": "1",
            "multiplo": null,
            "idTipoCampo": "5",
            "idCampoVinc": null,
            "idApi": null,
            "icone": "map-marker",
            "idMascara": null,
            "nMascara": null,
            "mask": null,
            "pattern": null,
            "idTag": null,
            "tagValue": "cidades",
            "tagTitle": null,
            "tagDescricao": null,
            "tagType": null,
            "opcoes": []
        }
    ]
}